<?xml version="1.0" encoding="UTF-8" standalone="no"?>
<svg width="13px" height="10px" viewBox="0 0 13 10" version="1.1" xmlns="http://www.w3.org/2000/svg" xmlns:xlink="http://www.w3.org/1999/xlink">
    <!-- Generator: Sketch 3.8.3 (29802) - http://www.bohemiancoding.com/sketch -->
    <title>Shape</title>
    <desc>Created with Sketch.</desc>
    <defs></defs>
    <g id="Ontwerp" stroke="none" stroke-width="1" fill="none" fill-rule="evenodd">
        <g id="Homepage---Not-login" transform="translate(-1025.000000, -794.000000)" fill="#1C2E36">
            <g id="Eigen-account" transform="translate(997.000000, 692.000000)">
                <path d="M39.4224717,102.127058 C39.2509863,101.957647 38.9729246,101.957647 38.8014392,102.127058 L32.7656651,108.089847 L30.1985139,105.553826 C30.027091,105.384416 29.7489981,105.384416 29.5775439,105.553826 L28.1286141,106.985252 C27.9571286,107.154631 27.9571286,107.429327 28.1286141,107.598737 L32.4551958,111.872927 C32.5409385,111.957663 32.6533331,112 32.7656964,112 C32.878091,112 32.9904856,111.957663 33.076197,111.872927 L40.8714016,104.171938 C40.9537659,104.090601 41,103.980247 41,103.865226 C41.0000313,103.750143 40.9537659,103.639851 40.8714016,103.558483 L39.4224717,102.127058 Z" id="Shape"></path>
            </g>
        </g>
    </g>
</svg>